{
    "features": [
        {
            "geometry": {
                "coordinates": [
                    -91.18843,
                    39.987842
                ],
                "type": "Point"
            },
            "properties": {
                "name": "ADAMS"
            },
            "type": "Feature"
        },
        {
            "geometry": {
                "coordinates": [
                    -89.337594,
                    37.191382
                ],
                "type": "Point"
            },
            "properties": {
                "name": "ALEXANDER"
            },
            "type": "Feature"
        },
        {
            "geometry": {
                "coordinates": [
                    -89.435525,
                    38.886838
                ],
                "type": "Point"
            },
            "properties": {
                "name": "BOND"
            },
            "type": "Feature"
        },
        {
            "geometry": {
                "coordinates": [
                    -88.823365,
                    42.323058
                ],
                "type": "Point"
            },
            "properties": {
                "name": "BOONE"
            },
            "type": "Feature"
        },
        {
            "geometry": {
                "coordinates": [
                    -90.750366,
                    39.961822
                ],
                "type": "Point"
            },
            "properties": {
                "name": "BROWN"
            },
            "type": "Feature"
        },
        {
            "geometry": {
                "coordinates": [
                    -89.528826,
                    41.404105
                ],
                "type": "Point"
            },
            "properties": {
                "name": "BUREAU"
            },
            "type": "Feature"
        },
        {
            "geometry": {
                "coordinates": [
                    -90.667503,
                    39.169246
                ],
                "type": "Point"
            },
            "properties": {
                "name": "CALHOUN"
            },
            "type": "Feature"
        },
        {
            "geometry": {
                "coordinates": [
                    -89.934244,
                    42.068959
                ],
                "type": "Point"
            },
            "properties": {
                "name": "CARROLL"
            },
            "type": "Feature"
        },
        {
            "geometry": {
                "coordinates": [
                    -90.247134,
                    39.973757
                ],
                "type": "Point"
            },
            "properties": {
                "name": "CASS"
            },
            "type": "Feature"
        },
        {
            "geometry": {
                "coordinates": [
                    -88.19913,
                    40.140019
                ],
                "type": "Point"
            },
            "properties": {
                "name": "CHAMPAIGN"
            },
            "type": "Feature"
        },
        {
            "geometry": {
                "coordinates": [
                    -89.277212,
                    39.545727
                ],
                "type": "Point"
            },
            "properties": {
                "name": "CHRISTIAN"
            },
            "type": "Feature"
        },
        {
            "geometry": {
                "coordinates": [
                    -87.787765,
                    39.333568
                ],
                "type": "Point"
            },
            "properties": {
                "name": "CLARK"
            },
            "type": "Feature"
        },
        {
            "geometry": {
                "coordinates": [
                    -88.49025,
                    38.754158
                ],
                "type": "Point"
            },
            "properties": {
                "name": "CLAY"
            },
            "type": "Feature"
        },
        {
            "geometry": {
                "coordinates": [
                    -89.422525,
                    38.606437
                ],
                "type": "Point"
            },
            "properties": {
                "name": "CLINTON"
            },
            "type": "Feature"
        },
        {
            "geometry": {
                "coordinates": [
                    -88.222063,
                    39.520212
                ],
                "type": "Point"
            },
            "properties": {
                "name": "COLES"
            },
            "type": "Feature"
        },
        {
            "geometry": {
                "coordinates": [
                    -87.816888,
                    41.840058
                ],
                "type": "Point"
            },
            "properties": {
                "name": "COOK"
            },
            "type": "Feature"
        },
        {
            "geometry": {
                "coordinates": [
                    -87.759535,
                    39.002694
                ],
                "type": "Point"
            },
            "properties": {
                "name": "CRAWFORD"
            },
            "type": "Feature"
        },
        {
            "geometry": {
                "coordinates": [
                    -88.240027,
                    39.273246
                ],
                "type": "Point"
            },
            "properties": {
                "name": "CUMBERLAND"
            },
            "type": "Feature"
        },
        {
            "geometry": {
                "coordinates": [
                    -88.770272,
                    41.893534
                ],
                "type": "Point"
            },
            "properties": {
                "name": "DE KALB"
            },
            "type": "Feature"
        },
        {
            "geometry": {
                "coordinates": [
                    -88.904071,
                    40.174601
                ],
                "type": "Point"
            },
            "properties": {
                "name": "DE WITT"
            },
            "type": "Feature"
        },
        {
            "geometry": {
                "coordinates": [
                    -88.217131,
                    39.769376
                ],
                "type": "Point"
            },
            "properties": {
                "name": "DOUGLAS"
            },
            "type": "Feature"
        },
        {
            "geometry": {
                "coordinates": [
                    -88.085608,
                    41.851939
                ],
                "type": "Point"
            },
            "properties": {
                "name": "DU PAGE"
            },
            "type": "Feature"
        },
        {
            "geometry": {
                "coordinates": [
                    -87.745567,
                    39.678514
                ],
                "type": "Point"
            },
            "properties": {
                "name": "EDGAR"
            },
            "type": "Feature"
        },
        {
            "geometry": {
                "coordinates": [
                    -88.053274,
                    38.416526
                ],
                "type": "Point"
            },
            "properties": {
                "name": "EDWARDS"
            },
            "type": "Feature"
        },
        {
            "geometry": {
                "coordinates": [
                    -88.589815,
                    39.059843
                ],
                "type": "Point"
            },
            "properties": {
                "name": "EFFINGHAM"
            },
            "type": "Feature"
        },
        {
            "geometry": {
                "coordinates": [
                    -89.024085,
                    39.00013
                ],
                "type": "Point"
            },
            "properties": {
                "name": "FAYETTE"
            },
            "type": "Feature"
        },
        {
            "geometry": {
                "coordinates": [
                    -88.223371,
                    40.597114
                ],
                "type": "Point"
            },
            "properties": {
                "name": "FORD"
            },
            "type": "Feature"
        },
        {
            "geometry": {
                "coordinates": [
                    -88.924278,
                    37.992224
                ],
                "type": "Point"
            },
            "properties": {
                "name": "FRANKLIN"
            },
            "type": "Feature"
        },
        {
            "geometry": {
                "coordinates": [
                    -90.207442,
                    40.472766
                ],
                "type": "Point"
            },
            "properties": {
                "name": "FULTON"
            },
            "type": "Feature"
        },
        {
            "geometry": {
                "coordinates": [
                    -88.230501,
                    37.762753
                ],
                "type": "Point"
            },
            "properties": {
                "name": "GALLATIN"
            },
            "type": "Feature"
        },
        {
            "geometry": {
                "coordinates": [
                    -90.390366,
                    39.356253
                ],
                "type": "Point"
            },
            "properties": {
                "name": "GREENE"
            },
            "type": "Feature"
        },
        {
            "geometry": {
                "coordinates": [
                    -88.418422,
                    41.285062
                ],
                "type": "Point"
            },
            "properties": {
                "name": "GRUNDY"
            },
            "type": "Feature"
        },
        {
            "geometry": {
                "coordinates": [
                    -88.539164,
                    38.081574
                ],
                "type": "Point"
            },
            "properties": {
                "name": "HAMILTON"
            },
            "type": "Feature"
        },
        {
            "geometry": {
                "coordinates": [
                    -91.164703,
                    40.403661
                ],
                "type": "Point"
            },
            "properties": {
                "name": "HANCOCK"
            },
            "type": "Feature"
        },
        {
            "geometry": {
                "coordinates": [
                    -88.266984,
                    37.518279
                ],
                "type": "Point"
            },
            "properties": {
                "name": "HARDIN"
            },
            "type": "Feature"
        },
        {
            "geometry": {
                "coordinates": [
                    -90.925128,
                    40.818302
                ],
                "type": "Point"
            },
            "properties": {
                "name": "HENDERSON"
            },
            "type": "Feature"
        },
        {
            "geometry": {
                "coordinates": [
                    -90.131572,
                    41.353108
                ],
                "type": "Point"
            },
            "properties": {
                "name": "HENRY"
            },
            "type": "Feature"
        },
        {
            "geometry": {
                "coordinates": [
                    -87.824359,
                    40.747196
                ],
                "type": "Point"
            },
            "properties": {
                "name": "IROQUOIS"
            },
            "type": "Feature"
        },
        {
            "geometry": {
                "coordinates": [
                    -89.383302,
                    37.784824
                ],
                "type": "Point"
            },
            "properties": {
                "name": "JACKSON"
            },
            "type": "Feature"
        },
        {
            "geometry": {
                "coordinates": [
                    -88.153809,
                    39.009953
                ],
                "type": "Point"
            },
            "properties": {
                "name": "JASPER"
            },
            "type": "Feature"
        },
        {
            "geometry": {
                "coordinates": [
                    -88.924003,
                    38.300533
                ],
                "type": "Point"
            },
            "properties": {
                "name": "JEFFERSON"
            },
            "type": "Feature"
        },
        {
            "geometry": {
                "coordinates": [
                    -90.356278,
                    39.085547
                ],
                "type": "Point"
            },
            "properties": {
                "name": "JERSEY"
            },
            "type": "Feature"
        },
        {
            "geometry": {
                "coordinates": [
                    -90.212439,
                    42.365901
                ],
                "type": "Point"
            },
            "properties": {
                "name": "JO DAVIESS"
            },
            "type": "Feature"
        },
        {
            "geometry": {
                "coordinates": [
                    -88.8809,
                    37.459691
                ],
                "type": "Point"
            },
            "properties": {
                "name": "JOHNSON"
            },
            "type": "Feature"
        },
        {
            "geometry": {
                "coordinates": [
                    -88.428599,
                    41.938808
                ],
                "type": "Point"
            },
            "properties": {
                "name": "KANE"
            },
            "type": "Feature"
        },
        {
            "geometry": {
                "coordinates": [
                    -87.861781,
                    41.137663
                ],
                "type": "Point"
            },
            "properties": {
                "name": "KANKAKEE"
            },
            "type": "Feature"
        },
        {
            "geometry": {
                "coordinates": [
                    -88.428817,
                    41.590528
                ],
                "type": "Point"
            },
            "properties": {
                "name": "KENDALL"
            },
            "type": "Feature"
        },
        {
            "geometry": {
                "coordinates": [
                    -90.213391,
                    40.931746
                ],
                "type": "Point"
            },
            "properties": {
                "name": "KNOX"
            },
            "type": "Feature"
        },
        {
            "geometry": {
                "coordinates": [
                    -88.885911,
                    41.34402
                ],
                "type": "Point"
            },
            "properties": {
                "name": "LA SALLE"
            },
            "type": "Feature"
        },
        {
            "geometry": {
                "coordinates": [
                    -88.0036,
                    42.323267
                ],
                "type": "Point"
            },
            "properties": {
                "name": "LAKE"
            },
            "type": "Feature"
        },
        {
            "geometry": {
                "coordinates": [
                    -87.726761,
                    38.719906
                ],
                "type": "Point"
            },
            "properties": {
                "name": "LAWRENCE"
            },
            "type": "Feature"
        },
        {
            "geometry": {
                "coordinates": [
                    -89.30021,
                    41.746155
                ],
                "type": "Point"
            },
            "properties": {
                "name": "LEE"
            },
            "type": "Feature"
        },
        {
            "geometry": {
                "coordinates": [
                    -88.557925,
                    40.891592
                ],
                "type": "Point"
            },
            "properties": {
                "name": "LIVINGSTON"
            },
            "type": "Feature"
        },
        {
            "geometry": {
                "coordinates": [
                    -89.367491,
                    40.124565
                ],
                "type": "Point"
            },
            "properties": {
                "name": "LOGAN"
            },
            "type": "Feature"
        },
        {
            "geometry": {
                "coordinates": [
                    -88.961536,
                    39.860043
                ],
                "type": "Point"
            },
            "properties": {
                "name": "MACON"
            },
            "type": "Feature"
        },
        {
            "geometry": {
                "coordinates": [
                    -89.92431,
                    39.261058
                ],
                "type": "Point"
            },
            "properties": {
                "name": "MACOUPIN"
            },
            "type": "Feature"
        },
        {
            "geometry": {
                "coordinates": [
                    -89.904996,
                    38.829701
                ],
                "type": "Point"
            },
            "properties": {
                "name": "MADISON"
            },
            "type": "Feature"
        },
        {
            "geometry": {
                "coordinates": [
                    -88.91893,
                    38.649555
                ],
                "type": "Point"
            },
            "properties": {
                "name": "MARION"
            },
            "type": "Feature"
        },
        {
            "geometry": {
                "coordinates": [
                    -89.345131,
                    41.033208
                ],
                "type": "Point"
            },
            "properties": {
                "name": "MARSHALL"
            },
            "type": "Feature"
        },
        {
            "geometry": {
                "coordinates": [
                    -89.916768,
                    40.239652
                ],
                "type": "Point"
            },
            "properties": {
                "name": "MASON"
            },
            "type": "Feature"
        },
        {
            "geometry": {
                "coordinates": [
                    -88.707774,
                    37.219092
                ],
                "type": "Point"
            },
            "properties": {
                "name": "MASSAC"
            },
            "type": "Feature"
        },
        {
            "geometry": {
                "coordinates": [
                    -90.677893,
                    40.456247
                ],
                "type": "Point"
            },
            "properties": {
                "name": "MCDONOUGH"
            },
            "type": "Feature"
        },
        {
            "geometry": {
                "coordinates": [
                    -88.452491,
                    42.324334
                ],
                "type": "Point"
            },
            "properties": {
                "name": "MCHENRY"
            },
            "type": "Feature"
        },
        {
            "geometry": {
                "coordinates": [
                    -88.847306,
                    40.490863
                ],
                "type": "Point"
            },
            "properties": {
                "name": "MCLEAN"
            },
            "type": "Feature"
        },
        {
            "geometry": {
                "coordinates": [
                    -89.801984,
                    40.027446
                ],
                "type": "Point"
            },
            "properties": {
                "name": "MENARD"
            },
            "type": "Feature"
        },
        {
            "geometry": {
                "coordinates": [
                    -90.741518,
                    41.205565
                ],
                "type": "Point"
            },
            "properties": {
                "name": "MERCER"
            },
            "type": "Feature"
        },
        {
            "geometry": {
                "coordinates": [
                    -90.177267,
                    38.278369
                ],
                "type": "Point"
            },
            "properties": {
                "name": "MONROE"
            },
            "type": "Feature"
        },
        {
            "geometry": {
                "coordinates": [
                    -89.478861,
                    39.231024
                ],
                "type": "Point"
            },
            "properties": {
                "name": "MONTGOMERY"
            },
            "type": "Feature"
        },
        {
            "geometry": {
                "coordinates": [
                    -90.201338,
                    39.7157
                ],
                "type": "Point"
            },
            "properties": {
                "name": "MORGAN"
            },
            "type": "Feature"
        },
        {
            "geometry": {
                "coordinates": [
                    -88.619382,
                    39.641661
                ],
                "type": "Point"
            },
            "properties": {
                "name": "MOULTRIE"
            },
            "type": "Feature"
        },
        {
            "geometry": {
                "coordinates": [
                    -89.320652,
                    42.04275
                ],
                "type": "Point"
            },
            "properties": {
                "name": "OGLE"
            },
            "type": "Feature"
        },
        {
            "geometry": {
                "coordinates": [
                    -89.760058,
                    40.78806
                ],
                "type": "Point"
            },
            "properties": {
                "name": "PEORIA"
            },
            "type": "Feature"
        },
        {
            "geometry": {
                "coordinates": [
                    -89.367066,
                    38.083732
                ],
                "type": "Point"
            },
            "properties": {
                "name": "PERRY"
            },
            "type": "Feature"
        },
        {
            "geometry": {
                "coordinates": [
                    -88.590975,
                    40.010383
                ],
                "type": "Point"
            },
            "properties": {
                "name": "PIATT"
            },
            "type": "Feature"
        },
        {
            "geometry": {
                "coordinates": [
                    -90.885764,
                    39.622789
                ],
                "type": "Point"
            },
            "properties": {
                "name": "PIKE"
            },
            "type": "Feature"
        },
        {
            "geometry": {
                "coordinates": [
                    -88.561661,
                    37.412714
                ],
                "type": "Point"
            },
            "properties": {
                "name": "POPE"
            },
            "type": "Feature"
        },
        {
            "geometry": {
                "coordinates": [
                    -89.126499,
                    37.223011
                ],
                "type": "Point"
            },
            "properties": {
                "name": "PULASKI"
            },
            "type": "Feature"
        },
        {
            "geometry": {
                "coordinates": [
                    -89.28582,
                    41.204446
                ],
                "type": "Point"
            },
            "properties": {
                "name": "PUTNAM"
            },
            "type": "Feature"
        },
        {
            "geometry": {
                "coordinates": [
                    -89.824262,
                    38.052197
                ],
                "type": "Point"
            },
            "properties": {
                "name": "RANDOLPH"
            },
            "type": "Feature"
        },
        {
            "geometry": {
                "coordinates": [
                    -88.085139,
                    38.712311
                ],
                "type": "Point"
            },
            "properties": {
                "name": "RICHLAND"
            },
            "type": "Feature"
        },
        {
            "geometry": {
                "coordinates": [
                    -90.567414,
                    41.46729
                ],
                "type": "Point"
            },
            "properties": {
                "name": "ROCK ISLAND"
            },
            "type": "Feature"
        },
        {
            "geometry": {
                "coordinates": [
                    -88.540803,
                    37.753142
                ],
                "type": "Point"
            },
            "properties": {
                "name": "SALINE"
            },
            "type": "Feature"
        },
        {
            "geometry": {
                "coordinates": [
                    -89.658618,
                    39.758264
                ],
                "type": "Point"
            },
            "properties": {
                "name": "SANGAMON"
            },
            "type": "Feature"
        },
        {
            "geometry": {
                "coordinates": [
                    -90.615154,
                    40.158082
                ],
                "type": "Point"
            },
            "properties": {
                "name": "SCHUYLER"
            },
            "type": "Feature"
        },
        {
            "geometry": {
                "coordinates": [
                    -90.474678,
                    39.644249
                ],
                "type": "Point"
            },
            "properties": {
                "name": "SCOTT"
            },
            "type": "Feature"
        },
        {
            "geometry": {
                "coordinates": [
                    -88.805531,
                    39.39126
                ],
                "type": "Point"
            },
            "properties": {
                "name": "SHELBY"
            },
            "type": "Feature"
        },
        {
            "geometry": {
                "coordinates": [
                    -89.928463,
                    38.470329
                ],
                "type": "Point"
            },
            "properties": {
                "name": "ST. CLAIR"
            },
            "type": "Feature"
        },
        {
            "geometry": {
                "coordinates": [
                    -89.798156,
                    41.093382
                ],
                "type": "Point"
            },
            "properties": {
                "name": "STARK"
            },
            "type": "Feature"
        },
        {
            "geometry": {
                "coordinates": [
                    -89.66234,
                    42.351911
                ],
                "type": "Point"
            },
            "properties": {
                "name": "STEPHENSON"
            },
            "type": "Feature"
        },
        {
            "geometry": {
                "coordinates": [
                    -89.513398,
                    40.507512
                ],
                "type": "Point"
            },
            "properties": {
                "name": "TAZEWELL"
            },
            "type": "Feature"
        },
        {
            "geometry": {
                "coordinates": [
                    -89.255097,
                    37.471236
                ],
                "type": "Point"
            },
            "properties": {
                "name": "UNION"
            },
            "type": "Feature"
        },
        {
            "geometry": {
                "coordinates": [
                    -87.732786,
                    40.183434
                ],
                "type": "Point"
            },
            "properties": {
                "name": "VERMILION"
            },
            "type": "Feature"
        },
        {
            "geometry": {
                "coordinates": [
                    -87.844348,
                    38.44597
                ],
                "type": "Point"
            },
            "properties": {
                "name": "WABASH"
            },
            "type": "Feature"
        },
        {
            "geometry": {
                "coordinates": [
                    -90.615068,
                    40.849081
                ],
                "type": "Point"
            },
            "properties": {
                "name": "WARREN"
            },
            "type": "Feature"
        },
        {
            "geometry": {
                "coordinates": [
                    -89.41045,
                    38.352186
                ],
                "type": "Point"
            },
            "properties": {
                "name": "WASHINGTON"
            },
            "type": "Feature"
        },
        {
            "geometry": {
                "coordinates": [
                    -88.425607,
                    38.429549
                ],
                "type": "Point"
            },
            "properties": {
                "name": "WAYNE"
            },
            "type": "Feature"
        },
        {
            "geometry": {
                "coordinates": [
                    -88.179659,
                    38.087432
                ],
                "type": "Point"
            },
            "properties": {
                "name": "WHITE"
            },
            "type": "Feature"
        },
        {
            "geometry": {
                "coordinates": [
                    -89.913903,
                    41.756434
                ],
                "type": "Point"
            },
            "properties": {
                "name": "WHITESIDE"
            },
            "type": "Feature"
        },
        {
            "geometry": {
                "coordinates": [
                    -87.978636,
                    41.445013
                ],
                "type": "Point"
            },
            "properties": {
                "name": "WILL"
            },
            "type": "Feature"
        },
        {
            "geometry": {
                "coordinates": [
                    -88.929957,
                    37.730181
                ],
                "type": "Point"
            },
            "properties": {
                "name": "WILLIAMSON"
            },
            "type": "Feature"
        },
        {
            "geometry": {
                "coordinates": [
                    -89.16078,
                    42.336342
                ],
                "type": "Point"
            },
            "properties": {
                "name": "WINNEBAGO"
            },
            "type": "Feature"
        },
        {
            "geometry": {
                "coordinates": [
                    -89.211368,
                    40.788308
                ],
                "type": "Point"
            },
            "properties": {
                "name": "WOODFORD"
            },
            "type": "Feature"
        }
    ],
    "type": "FeatureCollection"
}